0

0

0

0

0

0

0

0

0

0

0

0

0

0

0

0

0

0

0

0

0

0

0

0

0

0

0

0

0

0

0

0

0

0

0

0

0

0

0

0

0

0

0

0

0

0

0

0

0

0

0

0

0

0

0

0

0

0

0

0

0

0

0

0

0

0

0

0

0

0

0

0

0

0

0

0

0

0

0

0

0

0

0

0

0

0

0

0

0

0

0

0

0

0

0

0

0

0

0

0

0

0

0

0

0

0

0

0

0

0

0

0

0

0

0

0

0

0

0

0

0

0

0

0

0

0

0

0

0

0

0

0

0

0

0

0

0

0

0

0

0

0

0

0

0

0

0

0

0

0

0

0

0

0

0

0

0

0

0

0

0

0

0

0

0

0

0

0

0

0

0

0

0

0

0

0

0

0

0

2

2

2

2

2

2

2

2

4

4

3

4

4

4

4

4

8

8

8

8

8

8

7

10

10

7

10

10

9

10

13

13

14

13

14

15

15

15

15

16

15

19

19

19

20

19

19

21

21

22

21

22

21

25

25

25

25

25

27

27

27

27

27

27

31

31

31

31

31

31

33

33

33

33

33

37

37

37

37

37

37

39

39

39

39

39

39

43

43

43

43

43

43

45

45

45

45

45

49

49

49

49

49

49

51

50

51

50

51

50

55

54

55

54

55

54

57

56

57

56

57

62

62

63

62

62

62

64

64

64

64

64

64

68

68

68

68

68

68

70

70

70

70

70

72

72

72

72

72

72

74

74

74

74

74

74

78

78

79

78

78

78

80

80

80

80

80

84

84

84

83

84

84

86

86

86

86

86

86

90

90

90

90

89

90

92

91

92

92

91

95

96

95

95

95

96

97

97

97

97

97

98

101

101

101

101

101

104

104

103

103

107

107

107

107

107

109

109

109

110

113

113

114

113

113

115

115

115

115

115

117

117

117

117

119

120

119

119

119

123

123

123

123

124

125

125

125

126

128

129

129

129

129

131

131

131

131

133

133

132

133

133

135

133

134

135

138

139

138

139

139

141

141

141

141

142

143

143

143

143

144

144

144

144

144

148

148

148

148

150

150

151

150

150

152

153

152

152

154

154

154

154

154

158

158

158

158

158

160

160

160

160

162

162

162

162

162

164

164

164

164

166

166

167

166

166

168

168

168

168

168

172

172

172

172

174

174

174

175

174

176

176

176

176

178

178

178

178

178

180

179

180

180

180

182

182

182

182

184

184

184

184

184

185

185

185

185

188

188

187

188

187

189

190

189

189

190

191

191

191

191

193

193

193

193

194

195

195

195

194

197

197

197

197

197

199

199

199

199

199

201

201

201

201

203

204

203

203

205

205

205

205

205

205

205

206

205

205

207

207

207

207

207

209

209

209

209

211

211

211

211

211

211

211

211

210

213

212

213

213

213

215

215

215

215

217

217

217

217

217

216

217

217

217

217

219

218

219

219

221

221

221

221

221

223

223

223

223

223

223

223

223

223

224

225

224

225

225

225

225

225

225

226

227

227

227

227

227

227

227

226

228

229

229

229

230

230

230

231

231

231

232

232

232

232

232

232

232

232

233

234

234

234

234

235

234

235

235

235

236

237

236

237

237

236

236

237

236

236

236

236

237

236

236

237

237

237

239

238

239

238

238

238

238

238

238

238

240

240

240

240

240

240

241

241

241

243

243

243

242

242

242

244

243

242

242

242

242

242

242

242

242

242

242

244

244

244

244

244

244

244

244

245

245

244

244

244

244

244

244

244

244

244

244

244

244

245

244

244

245

244

245

246

247

246

246

